%YAML 1.1
%TAG !u! tag:unity3d.com,2011:
--- !u!21 &2100000
Material:
  serializedVersion: 6
  m_ObjectHideFlags: 0
  m_CorrespondingSourceObject: {fileID: 0}
  m_PrefabInstance: {fileID: 0}
  m_PrefabAsset: {fileID: 0}
  m_Name: WaterMaterial
  m_Shader: {fileID: 4800000, guid: 09ea3eb9230876d42aa11ead2e04eb83, type: 3}
  m_ShaderKeywords: 
  m_LightmapFlags: 4
  m_EnableInstancingVariants: 0
  m_DoubleSidedGI: 0
  m_CustomRenderQueue: -1
  stringTagMap: {}
  disabledShaderPasses: []
  m_SavedProperties:
    serializedVersion: 3
    m_TexEnvs:
    - _BumpMap:
        m_Texture: {fileID: 0}
        m_Scale: {x: 1, y: 1}
        m_Offset: {x: 0, y: 0}
    - _DetailAlbedoMap:
        m_Texture: {fileID: 0}
        m_Scale: {x: 1, y: 1}
        m_Offset: {x: 0, y: 0}
    - _DetailMask:
        m_Texture: {fileID: 0}
        m_Scale: {x: 1, y: 1}
        m_Offset: {x: 0, y: 0}
    - _DetailNormalMap:
        m_Texture: {fileID: 0}
        m_Scale: {x: 1, y: 1}
        m_Offset: {x: 0, y: 0}
    - _DetailNormals:
        m_Texture: {fileID: 2800000, guid: e0d862c4fd71b3f479612a378d3a6d1f, type: 3}
        m_Scale: {x: 1, y: 1}
        m_Offset: {x: 0, y: 0}
    - _EmissionMap:
        m_Texture: {fileID: 0}
        m_Scale: {x: 1, y: 1}
        m_Offset: {x: 0, y: 0}
    - _MainTex:
        m_Texture: {fileID: 0}
        m_Scale: {x: 1, y: 1}
        m_Offset: {x: 0, y: 0}
    - _MetallicGlossMap:
        m_Texture: {fileID: 0}
        m_Scale: {x: 1, y: 1}
        m_Offset: {x: 0, y: 0}
    - _MinuteDetailNormals:
        m_Texture: {fileID: 2800000, guid: a2b7f8104c4651a4d94bc811f57b0ef8, type: 3}
        m_Scale: {x: 1, y: 1}
        m_Offset: {x: 0, y: 0}
    - _OcclusionMap:
        m_Texture: {fileID: 0}
        m_Scale: {x: 1, y: 1}
        m_Offset: {x: 0, y: 0}
    - _ParallaxMap:
        m_Texture: {fileID: 0}
        m_Scale: {x: 1, y: 1}
        m_Offset: {x: 0, y: 0}
    - _RefractionNormals:
        m_Texture: {fileID: 2800000, guid: 8c89a36f6988835449eb5e7d63b80e55, type: 3}
        m_Scale: {x: 1, y: 1}
        m_Offset: {x: 0, y: 0}
    - _WaveNormals:
        m_Texture: {fileID: 2800000, guid: f3745697a752cc14280485e3647c1aee, type: 3}
        m_Scale: {x: 1, y: 1}
        m_Offset: {x: 0, y: 0}
    m_Floats:
    - _BumpScale: 1
    - _Cutoff: 0.5
    - _Depth: 7.51
    - _DetailIntensity: 1.5
    - _DetailNormalMapScale: 1
    - _DetailScrollSpeed: 0.0759
    - _DstBlend: 0
    - _GlossAmount: 0.191
    - _GlossMapScale: 1
    - _Glossiness: 0.5
    - _GlossyReflections: 1
    - _Metallic: 0
    - _MinuteDetailIntensity: 1.008
    - _MinuteDetailScrollSpeed: 0.0301
    - _Mode: 0
    - _OcclusionStrength: 1
    - _Parallax: 0.02
    - _RefractionIntensity: 0.174
    - _RefractionSpeed: 1.05
    - _SmoothnessTextureChannel: 0
    - _SpecularHighlights: 1
    - _SrcBlend: 1
    - _UVSec: 0
    - _WaveIntensity: 1.5
    - _WaveScrollSpeed: 0.1
    - _ZWrite: 1
    m_Colors:
    - _Color: {r: 1, g: 1, b: 1, a: 1}
    - _DiffuseColor: {r: 0.1241545, g: 0.1471948, b: 0.2830189, a: 0.6156863}
    - _EmissionColor: {r: 0, g: 0, b: 0, a: 1}
    - _SpecularColor: {r: 0, g: 0.7291808, b: 1, a: 0.5882353}
  m_BuildTextureStacks: []
