%YAML 1.1
%TAG !u! tag:unity3d.com,2011:
--- !u!82 &-3378230846095130328
AudioSource:
  m_ObjectHideFlags: 0
  m_CorrespondingSourceObject: {fileID: 0}
  m_PrefabInstance: {fileID: 0}
  m_PrefabAsset: {fileID: 0}
  m_GameObject: {fileID: 8295675627585519425}
  m_Enabled: 1
  serializedVersion: 4
  OutputAudioMixerGroup: {fileID: 0}
  m_audioClip: {fileID: 8300000, guid: 311ec0e3ddc71474eb5f91f03161f401, type: 3}
  m_PlayOnAwake: 0
  m_Volume: 1
  m_Pitch: 1
  Loop: 0
  Mute: 0
  Spatialize: 0
  SpatializePostEffects: 0
  Priority: 128
  DopplerLevel: 1
  MinDistance: 1
  MaxDistance: 500
  Pan2D: 0
  rolloffMode: 0
  BypassEffects: 0
  BypassListenerEffects: 0
  BypassReverbZones: 0
  rolloffCustomCurve:
    serializedVersion: 2
    m_Curve:
    - serializedVersion: 3
      time: 0
      value: 1
      inSlope: 0
      outSlope: 0
      tangentMode: 0
      weightedMode: 0
      inWeight: 0.33333334
      outWeight: 0.33333334
    - serializedVersion: 3
      time: 1
      value: 0
      inSlope: 0
      outSlope: 0
      tangentMode: 0
      weightedMode: 0
      inWeight: 0.33333334
      outWeight: 0.33333334
    m_PreInfinity: 2
    m_PostInfinity: 2
    m_RotationOrder: 4
  panLevelCustomCurve:
    serializedVersion: 2
    m_Curve:
    - serializedVersion: 3
      time: 0
      value: 0
      inSlope: 0
      outSlope: 0
      tangentMode: 0
      weightedMode: 0
      inWeight: 0.33333334
      outWeight: 0.33333334
    m_PreInfinity: 2
    m_PostInfinity: 2
    m_RotationOrder: 4
  spreadCustomCurve:
    serializedVersion: 2
    m_Curve:
    - serializedVersion: 3
      time: 0
      value: 0
      inSlope: 0
      outSlope: 0
      tangentMode: 0
      weightedMode: 0
      inWeight: 0.33333334
      outWeight: 0.33333334
    m_PreInfinity: 2
    m_PostInfinity: 2
    m_RotationOrder: 4
  reverbZoneMixCustomCurve:
    serializedVersion: 2
    m_Curve:
    - serializedVersion: 3
      time: 0
      value: 1
      inSlope: 0
      outSlope: 0
      tangentMode: 0
      weightedMode: 0
      inWeight: 0.33333334
      outWeight: 0.33333334
    m_PreInfinity: 2
    m_PostInfinity: 2
    m_RotationOrder: 4
--- !u!114 &-8716507875421103811
MonoBehaviour:
  m_ObjectHideFlags: 0
  m_CorrespondingSourceObject: {fileID: 0}
  m_PrefabInstance: {fileID: 0}
  m_PrefabAsset: {fileID: 0}
  m_GameObject: {fileID: 8295675627585519425}
  m_Enabled: 1
  m_EditorHideFlags: 0
  m_Script: {fileID: 11500000, guid: d7e13971efa6d8e4695967954638ac61, type: 3}
  m_Name: 
  m_EditorClassIdentifier: 
  SoundToPlay: {fileID: -3378230846095130328}
--- !u!1001 &8295675627585419745
PrefabInstance:
  m_ObjectHideFlags: 0
  serializedVersion: 2
  m_Modification:
    m_TransformParent: {fileID: 0}
    m_Modifications:
    - target: {fileID: 100000, guid: c1e6b6b1fb2878845a5be6f9781f927e, type: 3}
      propertyPath: m_Name
      value: Collectible_Star Variant
      objectReference: {fileID: 0}
    - target: {fileID: 400000, guid: c1e6b6b1fb2878845a5be6f9781f927e, type: 3}
      propertyPath: m_RootOrder
      value: 0
      objectReference: {fileID: 0}
    - target: {fileID: 400000, guid: c1e6b6b1fb2878845a5be6f9781f927e, type: 3}
      propertyPath: m_LocalPosition.x
      value: 0
      objectReference: {fileID: 0}
    - target: {fileID: 400000, guid: c1e6b6b1fb2878845a5be6f9781f927e, type: 3}
      propertyPath: m_LocalPosition.y
      value: 0
      objectReference: {fileID: 0}
    - target: {fileID: 400000, guid: c1e6b6b1fb2878845a5be6f9781f927e, type: 3}
      propertyPath: m_LocalPosition.z
      value: 0
      objectReference: {fileID: 0}
    - target: {fileID: 400000, guid: c1e6b6b1fb2878845a5be6f9781f927e, type: 3}
      propertyPath: m_LocalRotation.w
      value: 1
      objectReference: {fileID: 0}
    - target: {fileID: 400000, guid: c1e6b6b1fb2878845a5be6f9781f927e, type: 3}
      propertyPath: m_LocalRotation.x
      value: 0
      objectReference: {fileID: 0}
    - target: {fileID: 400000, guid: c1e6b6b1fb2878845a5be6f9781f927e, type: 3}
      propertyPath: m_LocalRotation.y
      value: 0
      objectReference: {fileID: 0}
    - target: {fileID: 400000, guid: c1e6b6b1fb2878845a5be6f9781f927e, type: 3}
      propertyPath: m_LocalRotation.z
      value: 0
      objectReference: {fileID: 0}
    - target: {fileID: 400000, guid: c1e6b6b1fb2878845a5be6f9781f927e, type: 3}
      propertyPath: m_LocalEulerAnglesHint.x
      value: 0
      objectReference: {fileID: 0}
    - target: {fileID: 400000, guid: c1e6b6b1fb2878845a5be6f9781f927e, type: 3}
      propertyPath: m_LocalEulerAnglesHint.y
      value: 0
      objectReference: {fileID: 0}
    - target: {fileID: 400000, guid: c1e6b6b1fb2878845a5be6f9781f927e, type: 3}
      propertyPath: m_LocalEulerAnglesHint.z
      value: 0
      objectReference: {fileID: 0}
    - target: {fileID: 6500000, guid: c1e6b6b1fb2878845a5be6f9781f927e, type: 3}
      propertyPath: m_IsTrigger
      value: 1
      objectReference: {fileID: 0}
    - target: {fileID: 19839462, guid: c1e6b6b1fb2878845a5be6f9781f927e, type: 3}
      propertyPath: InitialModule.maxNumParticles
      value: 10
      objectReference: {fileID: 0}
    - target: {fileID: 19839462, guid: c1e6b6b1fb2878845a5be6f9781f927e, type: 3}
      propertyPath: InitialModule.startSize.scalar
      value: 0.05
      objectReference: {fileID: 0}
    - target: {fileID: 19839462, guid: c1e6b6b1fb2878845a5be6f9781f927e, type: 3}
      propertyPath: InitialModule.startSpeed.scalar
      value: 0.1
      objectReference: {fileID: 0}
    - target: {fileID: 19839462, guid: c1e6b6b1fb2878845a5be6f9781f927e, type: 3}
      propertyPath: InitialModule.startSize.minScalar
      value: 0.02
      objectReference: {fileID: 0}
    m_RemovedComponents: []
  m_SourcePrefab: {fileID: 100100000, guid: c1e6b6b1fb2878845a5be6f9781f927e, type: 3}
--- !u!1 &8295675627585519425 stripped
GameObject:
  m_CorrespondingSourceObject: {fileID: 100000, guid: c1e6b6b1fb2878845a5be6f9781f927e,
    type: 3}
  m_PrefabInstance: {fileID: 8295675627585419745}
  m_PrefabAsset: {fileID: 0}
